STAT331_Final_Project
…
Warning: NAs introduced by coercion

Mean emissions and child_mortality

summary_table <- final_data %>%
  group_by(country) %>%
  summarise(
    mean_child_mortality = mean(child_mortality, na.rm = TRUE),
    mean_emissions = mean(emissions, na.rm = TRUE)
  )

summary_table

# A tibble: 194 × 3
   country             mean_child_mortality mean_emissions
   <chr>                              <dbl>          <dbl>
 1 Afghanistan                        386.          0.0466
 2 Albania                            273.          0.496 
 3 Algeria                            337.          0.764 
 4 Andorra                             19.2         2.79  
 5 Angola                             389.          0.211 
 6 Antigua and Barbuda                198.          1.57  
 7 Argentina                          236.          1.43  
 8 Armenia                            230.          0.800 
 9 Australia                          165.          5.29  
10 Austria                            226.          4.30  
# ℹ 184 more rows
…
